{
    "parent": "block/template_piston_head",
    "textures": {
        "unsticky": "block/piston_top_sticky",
        "side": "block/piston_sticky_side",
        "platform": "block/piston_top_sticky"
    }
}
