{
    "parent": "item/handheld",
    "textures": {
        "layer0": "items/diamond_axe_00"
    },
	"overrides":[
		{"predicate":{"damaged":1, "damage": 0.5}, "model": "item/diamond_axe/diamond_axe_01"},
		{"predicate":{"damaged":1, "damage": 0.75}, "model": "item/diamond_axe/diamond_axe_02"},
		{"predicate":{"damaged":1, "damage": 0.95}, "model": "item/diamond_axe/diamond_axe_03"}
	]
}
