{
    "textures": {
        "particle": "block/composter_compost",
        "inside": "block/composter_compost",
		"digits": "composter_levels:block/composter_digits"
    },
    "elements": [
        {   "from": [ 2, 0, 2 ],
            "to": [ 14, 3, 14 ],
            "faces": {
                "up": { "texture": "#inside", "cullface": "up" }
            }
        },
		{   "from": [ 7.25, 13, 13.99 ],
            "to": [ 8.5, 14.75, 13.99 ],
            "faces": {
                "north": { "uv": [ 0, 0, 5, 7 ], "texture": "#digits" }
            }
        },
		{   "from": [ 7.25, 13, 2.01 ],
            "to": [ 8.5, 14.75, 2.01 ],
            "faces": {
                "south": { "uv": [ 0, 0, 5, 7 ], "texture": "#digits" }
            }
        },
		{   "from": [ 2.01, 13, 7.25 ],
            "to": [ 2.01, 14.75, 8.5 ],
            "faces": {
                "east": { "uv": [ 0, 0, 5, 7 ], "texture": "#digits" }
            }
        },
		{   "from": [ 13.99, 13, 7.25 ],
            "to": [ 13.99, 14.75, 8.5 ],
            "faces": {
                "west": { "uv": [ 0, 0, 5, 7 ], "texture": "#digits" }
            }
        }
    ]
}
