{
  "parent": "minecraft:block/door_top",
  "textures": {
    "top": "minecraft:block/crimson_door_top",
    "topright": "minecraft:block/crimson_door_top2",
	"side": "minecraft:block/crimson_door_sides"
  }
}