{
    "parent": "item/handheld",
    "textures": {
        "layer0": "item/wooden_sword"
    },
    "overrides": [
        {
            "predicate": {
                "damaged": 1,
                "damage": 0.491
            },
            "model": "item/wooden_sword/wooden_sword_1"
        },
        {
            "predicate": {
                "damaged": 1,
                "damage": 0.745
            },
            "model": "item/wooden_sword/wooden_sword_2"
        },
        {
            "predicate": {
                "damaged": 1,
                "damage": 0.983
            },
            "model": "item/wooden_sword/wooden_sword_3"
        }
    ]
}