{
    "textures": {
        "sapling_acacia": "minecraft:blocks/sapling_acacia"
    },
    "display": {
        "gui": {
            "rotation": [ 30, 50, 0 ],
            "translation": [ 0, 0, 0 ],
            "scale": [ 0.75, 1, 0.75 ]
        },
        "ground": {
            "rotation": [ 0, 0, 0 ],
            "translation": [ 0, 3, 0 ],
            "scale": [ 0.25, 0.25, 0.25 ]
        },
        "fixed": {
            "rotation": [ 0, 180, 0 ],
            "translation": [ 0, 0, 0 ],
            "scale": [ 1, 1, 1 ]
        },
        "head": {
            "rotation": [ 0, 180, 0 ],
            "translation": [ 0, 0, 0 ],
            "scale": [ 1, 1, 1 ]
        },
        "firstperson_righthand": {
            "rotation": [ 0, 315, 0 ],
            "translation": [ 0, 2.5, 0 ],
            "scale": [ 0.4, 0.4, 0.4 ]
        },
        "thirdperson_righthand": {
            "rotation": [ 341, 0, 0 ],
            "translation": [ 0, 2.5, 0 ],
            "scale": [ 0.375, 0.375, 0.375 ]
        }
    },
    "elements": [
        {
            "name": "Cube",
            "from": [ 7, 0, 7 ], 
            "to": [ 9, 9, 9 ], 
            "faces": {
                "north": { "texture": "#sapling_acacia", "uv": [ 7, 7, 9, 16 ] },
                "east": { "texture": "#sapling_acacia", "uv": [ 7, 7, 9, 16 ] },
                "south": { "texture": "#sapling_acacia", "uv": [ 7, 7, 9, 16 ] },
                "west": { "texture": "#sapling_acacia", "uv": [ 7, 7, 9, 16 ] }
            }
        },
        {
            "name": "Cube",
            "from": [ 3, 5, 7 ], 
            "to": [ 7, 7, 9 ], 
            "faces": {
                "north": { "texture": "#sapling_acacia", "uv": [ 9, 9, 13, 11 ] },
                "south": { "texture": "#sapling_acacia", "uv": [ 13, 9, 9, 11 ] },
                "west": { "texture": "#sapling_acacia", "uv": [ 7, 7, 9, 9 ] },
                "up": { "texture": "#sapling_acacia", "uv": [ 3, 10, 7, 12 ] },
                "down": { "texture": "#sapling_acacia", "uv": [ 3, 10, 7, 12 ], "rotation": 180 }
            }
        },
        {
            "name": "Cube",
            "from": [ 7, 4, 3 ], 
            "to": [ 9, 6, 7 ], 
            "faces": {
                "north": { "texture": "#sapling_acacia", "uv": [ 3, 8, 5, 10 ], "rotation": 180 },
                "east": { "texture": "#sapling_acacia", "uv": [ 3, 10, 7, 12 ] },
                "west": { "texture": "#sapling_acacia", "uv": [ 3, 10, 7, 12 ] },
                "up": { "texture": "#sapling_acacia", "uv": [ 7, 9, 9, 13 ], "rotation": 180 },
                "down": { "texture": "#sapling_acacia", "uv": [ 7, 11, 9, 15 ], "rotation": 180 }
            }
        },
        {
            "name": "Cube",
            "from": [ 7, 4, 9 ], 
            "to": [ 9, 6, 13 ], 
            "faces": {
                "east": { "texture": "#sapling_acacia", "uv": [ 3, 10, 7, 12 ] },
                "south": { "texture": "#sapling_acacia", "uv": [ 3, 8, 5, 10 ] },
                "west": { "texture": "#sapling_acacia", "uv": [ 3, 10, 7, 12 ] },
                "up": { "texture": "#sapling_acacia", "uv": [ 7, 7, 9, 11 ] },
                "down": { "texture": "#sapling_acacia", "uv": [ 7, 8, 9, 12 ] }
            }
        },
        {
            "name": "Cube",
            "from": [ 9, 5, 7 ], 
            "to": [ 13, 7, 9 ], 
            "faces": {
                "north": { "texture": "#sapling_acacia", "uv": [ 13, 9, 9, 11 ] },
                "east": { "texture": "#sapling_acacia", "uv": [ 7, 7, 9, 9 ] },
                "south": { "texture": "#sapling_acacia", "uv": [ 9, 9, 13, 11 ] },
                "up": { "texture": "#sapling_acacia", "uv": [ 3, 10, 7, 12 ], "rotation": 180 },
                "down": { "texture": "#sapling_acacia", "uv": [ 3, 10, 7, 12 ] }
            }
        },
        {
            "name": "Cube",
            "from": [ 3, 7, 7 ], 
            "to": [ 5, 9, 9 ], 
            "faces": {
                "north": { "texture": "#sapling_acacia", "uv": [ 11, 7, 13, 9 ] },
                "east": { "texture": "#sapling_acacia", "uv": [ 11, 7, 13, 9 ], "rotation": 180 },
                "south": { "texture": "#sapling_acacia", "uv": [ 11, 7, 13, 9 ], "rotation": 180 },
                "west": { "texture": "#sapling_acacia", "uv": [ 7, 7, 9, 9 ] }
            }
        },
        {
            "name": "Cube",
            "from": [ 11, 7, 7 ], 
            "to": [ 13, 9, 9 ], 
            "faces": {
                "north": { "texture": "#sapling_acacia", "uv": [ 11, 7, 13, 9 ], "rotation": 180 },
                "east": { "texture": "#sapling_acacia", "uv": [ 7, 7, 9, 9 ] },
                "south": { "texture": "#sapling_acacia", "uv": [ 11, 7, 13, 9 ] },
                "west": { "texture": "#sapling_acacia", "uv": [ 7, 7, 9, 9 ], "rotation": 180 }
            }
        },
        {
            "name": "Cube",
            "from": [ 7, 6, 11 ], 
            "to": [ 9, 9, 13 ], 
            "faces": {
                "north": { "texture": "#sapling_acacia", "uv": [ 11, 7, 13, 10 ], "rotation": 180 },
                "east": { "texture": "#sapling_acacia", "uv": [ 7, 7, 9, 10 ] },
                "south": { "texture": "#sapling_acacia", "uv": [ 7, 7, 9, 10 ] },
                "west": { "texture": "#sapling_acacia", "uv": [ 3, 7, 5, 10 ], "rotation": 180 }
            }
        },
        {
            "name": "Cube",
            "from": [ 7, 6, 3 ], 
            "to": [ 9, 9, 5 ], 
            "faces": {
                "north": { "texture": "#sapling_acacia", "uv": [ 7, 8, 9, 11 ], "rotation": 180 },
                "east": { "texture": "#sapling_acacia", "uv": [ 3, 7, 5, 10 ], "rotation": 180 },
                "south": { "texture": "#sapling_acacia", "uv": [ 3, 7, 5, 10 ], "rotation": 180 },
                "west": { "texture": "#sapling_acacia", "uv": [ 3, 7, 5, 10 ] }
            }
        },
        {
            "name": "Cube",
            "from": [ 1, 9, 1 ], 
            "to": [ 15, 12, 15 ], 
            "faces": {
                "north": { "texture": "#sapling_acacia", "uv": [ 1, 4, 15, 7 ] },
                "east": { "texture": "#sapling_acacia", "uv": [ 1, 4, 15, 7 ] },
                "south": { "texture": "#sapling_acacia", "uv": [ 1, 4, 15, 7 ] },
                "west": { "texture": "#sapling_acacia", "uv": [ 1, 4, 15, 7 ] },
                "up": { "texture": "#sapling_acacia", "uv": [ 10, 6, 13, 4 ] },
                "down": { "texture": "#sapling_acacia", "uv": [ 10, 6, 13, 4 ] }
            }
        },
        {
            "name": "Cube",
            "from": [ 3, 12, 3 ], 
            "to": [ 13, 15, 13 ], 
            "faces": {
                "north": { "texture": "#sapling_acacia", "uv": [ 3, 1, 13, 4 ] },
                "east": { "texture": "#sapling_acacia", "uv": [ 3, 1, 13, 4 ] },
                "south": { "texture": "#sapling_acacia", "uv": [ 3, 1, 13, 4 ] },
                "west": { "texture": "#sapling_acacia", "uv": [ 3, 1, 13, 4 ] },
                "up": { "texture": "#sapling_acacia", "uv": [ 6, 1, 3, 3 ] }
            }
        }
    ]
}