{
"ambientocclusion": false,
"inventoryRender3D": false,
"textures": {
    "down": "blocks/cocoa_stage_0",
    "up": "blocks/cocoa_stage_0",
    "north": "blocks/cocoa_stage_0",
    "south": "blocks/cocoa_stage_0",
    "west": "blocks/cocoa_stage_0",
    "east": "blocks/cocoa_stage_0",
    "particle": "blocks/cocoa_stage_0"
},
"elements": [ 
{
    "from": [ 6, 7, 11 ],
    "to": [ 10, 12, 15 ],
    "faces": {
        "down":  { "uv": [ 0, 0, 4, 4 ], "texture": "#down" },
        "up":    { "uv": [ 0, 0, 4, 4 ], "texture": "#up" },
        "north": { "uv": [ 15, 4, 11, 9 ], "texture": "#north" },
        "south": { "uv": [ 11, 4, 15, 9 ], "texture": "#south" },
        "west":  { "uv": [ 11, 4, 15, 9 ], "texture": "#west" },
        "east":  { "uv": [ 15, 4, 11, 9 ], "texture": "#east" }
    }
},
{
    "from": [ 7.5, 12, 12 ],
    "to": [ 8.5, 13, 13 ],
    "faces": {
        "north": { "uv": [ 12, 3, 13, 4 ], "texture": "#north" },
        "west":  { "uv": [ 12, 3, 13, 4 ], "texture": "#west" },
        "east":  { "uv": [ 13, 3, 12, 4 ], "texture": "#east" }
    }
},
{
    "from": [ 7.5, 12, 13 ],
    "to": [ 8.5, 13, 14 ],
    "faces": {
        "west":  { "uv": [ 13, 3, 14, 4 ], "texture": "#west" },
        "east":  { "uv": [ 14, 3, 13, 4 ], "texture": "#east" }
    }
},
{
    "from": [ 7.5, 12, 14 ],
    "to": [ 8.5, 13, 15 ],
    "faces": {
        "south": { "uv": [ 14, 4, 15, 3 ], "texture": "#south" },
        "west":  { "uv": [ 14, 3, 15, 4 ], "texture": "#west" },
        "east":  { "uv": [ 15, 3, 14, 4 ], "texture": "#east" }
    }
},
{
    "from": [ 7.5, 13, 12 ],
    "to": [ 8.5, 14, 13 ],
    "faces": {
        "up":    { "uv": [ 12, 2, 13, 3 ], "texture": "#up" },
        "north": { "uv": [ 12, 2, 13, 3 ], "texture": "#north" },
        "west":  { "uv": [ 12, 2, 13, 3 ], "texture": "#west" },
        "east":  { "uv": [ 13, 2, 12, 3 ], "texture": "#east" }
    }
},
{
    "from": [ 7.5, 13, 13 ],
    "to": [ 8.5, 14, 14 ],
    "faces": {
        "west":  { "uv": [ 13, 2, 14, 3 ], "texture": "#west" },
        "east":  { "uv": [ 14, 2, 13, 3 ], "texture": "#east" }
    }
},
{
    "from": [ 7.5, 13, 14 ],
    "to": [ 8.5, 14, 15 ],
    "faces": {
        "south": { "uv": [ 14, 3, 15, 2 ], "texture": "#south" },
        "west":  { "uv": [ 14, 2, 15, 3 ], "texture": "#west" },
        "east":  { "uv": [ 15, 2, 14, 3 ], "texture": "#east" }
    }
},
{
    "from": [ 7.5, 14, 13 ],
    "to": [ 8.5, 15, 14 ],
    "faces": {
        "up":    { "uv": [ 13, 1, 14, 2 ], "texture": "#up" },
        "north": { "uv": [ 13, 1, 14, 2 ], "texture": "#north" },
        "west":  { "uv": [ 13, 1, 14, 2 ], "texture": "#west" },
        "east":  { "uv": [ 14, 1, 13, 2 ], "texture": "#east" }
    }
},
{
    "from": [ 7.5, 14, 14 ],
    "to": [ 8.5, 15, 15 ],
    "faces": {
        "west":  { "uv": [ 14, 1, 15, 2 ], "texture": "#west" },
        "east":  { "uv": [ 15, 1, 14, 2 ], "texture": "#east" }
    }
},
{
    "from": [ 7.5, 14, 15 ],
    "to": [ 8.5, 15, 16 ],
    "faces": {
        "down":  { "uv": [ 15, 2, 16, 1 ], "texture": "#down" },
        "south": { "uv": [ 15, 2, 16, 1 ], "texture": "#south" },
        "west":  { "uv": [ 15, 1, 16, 2 ], "texture": "#west" },
        "east":  { "uv": [ 16, 1, 15, 2 ], "texture": "#east" }
    }
},
{
    "from": [ 7.5, 15, 14 ],
    "to": [ 8.5, 16, 15 ],
    "faces": {
        "up":    { "uv": [ 14, 0, 15, 1 ], "texture": "#up" },
        "north": { "uv": [ 14, 0, 15, 1 ], "texture": "#north" },
        "west":  { "uv": [ 14, 0, 15, 1 ], "texture": "#west" },
        "east":  { "uv": [ 15, 0, 14, 1 ], "texture": "#east" }
    }
},
{
    "from": [ 7.5, 15, 15 ],
    "to": [ 8.5, 16, 16 ],
    "faces": {
        "up":    { "uv": [ 15, 0, 16, 1 ], "texture": "#up" },
        "south": { "uv": [ 15, 1, 16, 0 ], "texture": "#south" },
        "west":  { "uv": [ 15, 0, 16, 1 ], "texture": "#west" },
        "east":  { "uv": [ 16, 0, 15, 1 ], "texture": "#east" }
    }
}
]
}