{
	"credit": "Made with Blockbench, a free, modern block model editor by JannisX11",
	"textures": {
		"down": "blocks/iron_trapdoor",
		"particle": "blocks/iron_trapdoor",
		"up": "blocks/iron_trapdoor",
		"north": "blocks/iron_trapdoor",
		"south": "blocks/iron_trapdoor",
		"west": "blocks/iron_trapdoor",
		"east": "blocks/iron_trapdoor"
	},
	"elements": [
		{
			"name": "cube",
			"from": [0, 0, 0],
			"to": [3, 3, 16],
			"shade": true,
			"faces": {
				"north": {
					"uv": [3, 13, 0, 16],
					"texture": "#north"
				},
				"east": {"uv": [16, 13, 0, 16], "texture": "#east"},
				"south": {
					"uv": [0, 13, 3, 16],
					"texture": "#south"
				},
				"west": {"uv": [0, 13, 16, 16], "texture": "#west"},
				"up": {"uv": [0, 0, 3, 16], "texture": "#up"},
				"down": {"uv": [0, 0, 3, 16], "texture": "#down"}
			}
		},
		{
			"name": "cube",
			"from": [3, 0, 0],
			"to": [13, 3, 3],
			"shade": true,
			"faces": {
				"north": {
					"uv": [13, 13, 3, 16],
					"texture": "#north"
				},
				"east": {"uv": [3, 13, 0, 16], "texture": "#east"},
				"south": {
					"uv": [3, 13, 13, 16],
					"texture": "#south"
				},
				"west": {"uv": [0, 13, 3, 16], "texture": "#west"},
				"up": {"uv": [3, 0, 13, 3], "texture": "#up"},
				"down": {"uv": [3, 3, 13, 0], "texture": "#down"}
			}
		},
		{
			"name": "cube",
			"from": [13, 0, 0],
			"to": [16, 3, 16],
			"shade": true,
			"faces": {
				"north": {
					"uv": [16, 13, 13, 16],
					"texture": "#north"
				},
				"east": {"uv": [16, 13, 0, 16], "texture": "#east"},
				"south": {
					"uv": [13, 13, 16, 16],
					"texture": "#south"
				},
				"west": {"uv": [0, 13, 16, 16], "texture": "#west"},
				"up": {"uv": [13, 0, 16, 16], "texture": "#up"},
				"down": {"uv": [13, 16, 16, 0], "texture": "#down"}
			}
		},
		{
			"name": "cube",
			"from": [3, 0, 13],
			"to": [13, 3, 16],
			"shade": true,
			"faces": {
				"north": {
					"uv": [13, 13, 3, 16],
					"texture": "#north"
				},
				"east": {
					"uv": [16, 13, 13, 16],
					"texture": "#east"
				},
				"south": {
					"uv": [3, 13, 13, 16],
					"texture": "#south"
				},
				"west": {
					"uv": [13, 13, 16, 16],
					"texture": "#west"
				},
				"up": {"uv": [3, 13, 13, 16], "texture": "#up"},
				"down": {"uv": [3, 16, 13, 13], "texture": "#down"}
			}
		},
		{
			"name": "cube",
			"from": [6, 0, 3],
			"to": [10, 3, 13],
			"shade": true,
			"faces": {
				"north": {
					"uv": [10, 13, 6, 16],
					"texture": "#north"
				},
				"east": {"uv": [13, 13, 3, 16], "texture": "#east"},
				"south": {
					"uv": [6, 13, 10, 16],
					"texture": "#south"
				},
				"west": {"uv": [3, 13, 13, 16], "texture": "#west"},
				"up": {"uv": [6, 3, 10, 13], "texture": "#up"},
				"down": {"uv": [6, 3, 10, 13], "texture": "#down"}
			}
		},
		{
			"name": "cube",
			"from": [3, 0, 6],
			"to": [6, 3, 10],
			"shade": true,
			"faces": {
				"north": {
					"uv": [6, 13, 3, 16],
					"texture": "#north"
				},
				"east": {"uv": [10, 13, 6, 16], "texture": "#east"},
				"south": {
					"uv": [3, 13, 6, 16],
					"texture": "#south"
				},
				"west": {"uv": [6, 13, 10, 16], "texture": "#west"},
				"up": {"uv": [3, 6, 6, 10], "texture": "#up"},
				"down": {"uv": [3, 6, 6, 10], "texture": "#down"}
			}
		},
		{
			"name": "cube",
			"from": [10, 0, 6],
			"to": [13, 3, 10],
			"shade": true,
			"faces": {
				"north": {
					"uv": [13, 13, 10, 16],
					"texture": "#north"
				},
				"east": {"uv": [10, 13, 6, 16], "texture": "#east"},
				"south": {
					"uv": [10, 13, 13, 16],
					"texture": "#south"
				},
				"west": {"uv": [6, 13, 10, 16], "texture": "#west"},
				"up": {"uv": [10, 6, 13, 10], "texture": "#up"},
				"down": {"uv": [10, 6, 13, 10], "texture": "#down"}
			}
		}
	],
	"display": {
		"thirdperson_righthand": {
			"scale": [0.375, 0.375, 0.375],
			"rotation": [75, 45, 0],
			"translation": [0, 2.5, 2]
		},
		"thirdperson_lefthand": {
			"scale": [0.375, 0.375, 0.375],
			"rotation": [75, 45, 0],
			"translation": [0, 2.5, 2]
		},
		"firstperson_righthand": {
			"scale": [0.4, 0.4, 0.4],
			"rotation": [0, 45, 0],
			"translation": [0, 4.2, 0]
		},
		"firstperson_lefthand": {
			"scale": [0.4, 0.4, 0.4],
			"rotation": [0, 45, 0],
			"translation": [0, 4.2, 0]
		},
		"gui": {
			"scale": [0.625, 0.625, 0.625],
			"rotation": [30, 45, 0]
		},
		"fixed": {"scale": [0.5, 0.5, 0.5]},
		"ground": {
			"scale": [0.25, 0.25, 0.25],
			"translation": [0, 3, 0]
		},
		"head": {"scale": [1, 1, 1]}
	}
}