{
"ambientocclusion": false,
"inventoryRender3D": false,
"textures": {
    "down": "blocks/melon_stem_disconnected",
    "up": "blocks/melon_stem_disconnected",
    "north": "blocks/melon_stem_disconnected",
    "south": "blocks/melon_stem_disconnected",
    "west": "blocks/melon_stem_disconnected",
    "east": "blocks/melon_stem_disconnected",
    "particle": "blocks/melon_stem_disconnected"
},
"elements": [ 
{
    "from": [ 9, -1, 9 ],
    "to": [ 10, 1, 10 ],
    "faces": {
        "down":  { "uv": [ 9, 9, 10, 10 ], "texture": "#down", "tintindex": 0 },
        "up":    { "uv": [ 9, 9, 10, 10 ], "texture": "#up", "tintindex": 0 },
        "north": { "uv": [ 10, 9, 9, 10 ], "texture": "#north", "tintindex": 0 },
        "south": { "uv": [ 9, 9, 10, 10 ], "texture": "#south", "tintindex": 0 },
        "west":  { "uv": [ 9, 9, 10, 10 ], "texture": "#west", "tintindex": 0 },
        "east":  { "uv": [ 10, 9, 9, 10 ], "texture": "#east", "tintindex": 0 }
    }
},
{
    "from": [ 8.5, -1, 8.5 ],
    "to": [ 9.5, 0, 9.5 ],
    "faces": {
        "down":  { "uv": [ 8, 12, 9, 11 ], "texture": "#down", "tintindex": 0 },
        "up":    { "uv": [ 8, 11, 9, 12 ], "texture": "#up", "tintindex": 0 },
        "north": { "uv": [ 8, 11, 9, 12 ], "texture": "#north", "tintindex": 0 },
        "south": { "uv": [ 8, 12, 9, 11 ], "texture": "#south", "tintindex": 0 },
        "west":  { "uv": [ 8, 11, 9, 12 ], "texture": "#west", "tintindex": 0 },
        "east":  { "uv": [ 9, 11, 8, 12 ], "texture": "#east", "tintindex": 0 }
    }
},
{
    "from": [ 7, -1, 7 ],
    "to": [ 8, 2, 8 ],
    "faces": {
        "down":  { "uv": [ 8, 15, 9, 16 ], "texture": "#down", "tintindex": 0 },
        "up":    { "uv": [ 8, 13, 9, 14 ], "texture": "#up", "tintindex": 0 },
        "north": { "uv": [ 8, 13, 9, 16 ], "texture": "#north", "tintindex": 0 },
        "south": { "uv": [ 8, 13, 9, 16 ], "texture": "#south", "tintindex": 0 },
        "west":  { "uv": [ 8, 13, 9, 16 ], "texture": "#west", "tintindex": 0 },
        "east":  { "uv": [ 8, 13, 9, 16 ], "texture": "#east", "tintindex": 0 }
    }
},
{
    "from": [ 8, 5, 8 ],
    "to": [ 9, 7, 9 ],
    "faces": {
        "down":  { "uv": [ 8, 14, 9, 15 ], "texture": "#down", "tintindex": 0 },
        "up":    { "uv": [ 8, 13, 9, 14 ], "texture": "#up", "tintindex": 0 },
        "north": { "uv": [ 9, 13, 8, 15 ], "texture": "#north", "tintindex": 0 },
        "south": { "uv": [ 8, 13, 9, 15 ], "texture": "#south", "tintindex": 0 },
        "west":  { "uv": [ 8, 13, 9, 15 ], "texture": "#west", "tintindex": 0 },
        "east":  { "uv": [ 9, 13, 8, 15 ], "texture": "#east", "tintindex": 0 }
    }
},
{
    "from": [ 7.5, -1, 7.5 ],
    "to": [ 8.5, 6, 8.5 ],
    "faces": {
        "down":  { "uv": [ 7, 15, 8, 16 ], "texture": "#down", "tintindex": 0 },
        "up":    { "uv": [ 7, 13, 8, 14 ], "texture": "#up", "tintindex": 0 },
        "north": { "uv": [ 7, 13, 8, 16 ], "texture": "#north", "tintindex": 0 },
        "south": { "uv": [ 7, 13, 8, 16 ], "texture": "#south", "tintindex": 0 },
        "west":  { "uv": [ 7, 13, 8, 16 ], "texture": "#west", "tintindex": 0 },
        "east":  { "uv": [ 7, 13, 8, 16 ], "texture": "#east", "tintindex": 0 }
    }
}
]
}