{
    "parent": "block/cube",
    "textures": {
        "particle": "blocks/mushroom_block_inside",
        "down": "blocks/mushroom_block_inside",
        "up": "blocks/mushroom_block_skin_red_2",
        "north": "blocks/mushroom_block_skin_red_2",
        "east": "blocks/mushroom_block_skin_red_2",
        "south": "blocks/mushroom_block_inside",
        "west": "blocks/mushroom_block_inside"
    }
}
